<?xml version="1.0" encoding="UTF-8"?>
<svg width="200px" height="200px" viewBox="0 0 200 200" version="1.1" xmlns="http://www.w3.org/2000/svg" xmlns:xlink="http://www.w3.org/1999/xlink">
    <!-- Generator: Sketch 52.5 (67469) - http://www.bohemiancoding.com/sketch -->
    <title>freeze</title>
    <desc>Created with Sketch.</desc>
    <defs>
        <polygon id="path-1" points="0 0 134 0 134 116 0 116"></polygon>
    </defs>
    <g id="freeze" stroke="none" stroke-width="1" fill="none" fill-rule="evenodd">
        <g transform="translate(33.000000, 42.000000)" id="Group-3">
            <g transform="translate(0.000000, 0.000000)">
                <mask id="mask-2" fill="white">
                    <use xlink:href="#path-1"></use>
                </mask>
                <g id="Clip-2"></g>
                <path d="M86.3927932,57.9979698 C86.3927932,58.9468689 86.24969,59.8453434 86.1204354,60.75757 C85.3818382,65.7358523 82.7505856,70.0861191 78.94681,73.0795061 C77.4834642,74.2025993 75.9139452,75.1744186 74.1690092,75.8711948 C71.9486014,76.7650852 69.5158468,77.2876673 66.9723026,77.2876673 C64.4287584,77.2876673 62.0144688,76.7650852 59.775596,75.8711948 C58.0445088,75.1881708 56.4565247,74.2025993 55.0162602,73.0795061 C51.1940196,70.0861191 48.562767,65.7358523 47.8380185,60.75757 C47.6949153,59.8453434 47.551812,58.9468689 47.551812,57.9979698 C47.551812,57.0490707 47.6949153,56.1551802 47.8380185,55.2429536 C48.562767,50.2646713 51.1940196,45.9144045 55.0162602,42.9393537 C56.4565247,41.7933403 58.0445088,40.826105 59.775596,40.1293288 C62.0144688,39.2354384 64.4287584,38.7128563 66.9723026,38.7128563 C69.5296955,38.7128563 71.9486014,39.2354384 74.1690092,40.1293288 C75.9139452,40.8077688 77.4834642,41.7933403 78.94681,42.9393537 C82.7505856,45.9144045 85.3818382,50.2646713 86.1204354,55.2429536 C86.24969,56.1551802 86.3927932,57.0490707 86.3927932,57.9979698 M131.221028,55.2429536 L119.805085,55.2429536 L122.925658,49.888779 C123.68272,48.5639875 123.230329,46.8816398 121.914703,46.1252709 C120.599077,45.3551499 118.904919,45.8043872 118.129392,47.1291787 L113.420835,55.2429536 L105.651716,55.2429536 L114.939576,39.285863 C115.715103,37.9610715 115.244247,36.2787238 113.928621,35.526939 C112.612994,34.7751542 110.914221,35.2243915 110.157159,36.5308468 L99.2674659,55.2429536 L91.8030178,55.2429536 C91.0090258,48.2201834 87.24218,42.0821357 81.7765606,38.0710888 L85.5295577,31.6213253 L107.308943,31.6029891 C108.841532,31.6029891 110.06945,30.3698787 110.06945,28.8663091 C110.06945,27.3444033 108.841532,26.1067089 107.308943,26.1067089 L88.7378393,26.1067089 L92.6108585,19.446079 L102.046438,19.446079 C103.579027,19.446079 104.820794,18.2129686 104.820794,16.7048149 C104.820794,15.1829091 103.597492,13.9497987 102.046438,13.9497987 L95.8237564,13.9497987 L101.520187,4.13533995 C102.27725,2.81054846 101.829475,1.12820079 100.513849,0.376415997 C99.1936062,-0.393705008 97.4994488,0.0738684596 96.7239217,1.38032374 L91.0274907,11.1901984 L87.9069175,5.81768762 C87.1313904,4.51123235 85.437233,4.06657915 84.1216067,4.81836394 C82.8059804,5.58848494 82.3535896,7.27083261 83.1106518,8.57728789 L87.8330577,16.6910628 L83.9600386,23.3516927 L74.6721786,7.39460206 C73.8966515,6.06981057 72.2024941,5.62515737 70.8822516,6.39069432 C69.5666253,7.14706317 69.1188508,8.82941084 69.8759129,10.1358661 L80.7471407,28.8663091 L76.9987598,35.3114885 C73.9520463,33.9683608 70.5775803,33.216576 67.0092325,33.216576 C63.4547334,33.216576 60.0848836,33.9683608 57.0197051,35.2931523 L53.266708,28.8663091 L64.1564007,10.1542023 C64.9134629,8.82941084 64.4656883,7.14706317 63.150062,6.39069432 C61.8159708,5.62515737 60.1171972,6.08814679 59.360135,7.39460206 L50.0768913,23.3700289 L46.1992559,16.7048149 L50.9216618,8.57728789 C51.678724,7.2524964 51.2309494,5.57014873 49.9107069,4.81836394 C48.5766157,4.04824293 46.8824583,4.51123235 46.1253962,5.81768762 L43.0048229,11.1901984 L37.271462,1.38032374 C36.5143999,0.0555322452 34.8202425,-0.393705008 33.5046162,0.376415997 C32.170525,1.12820079 31.7181342,2.81054846 32.4751964,4.11700374 L38.1900923,13.9497987 L31.9535621,13.9497987 C30.4209729,13.9497987 29.1745901,15.169157 29.1745901,16.6910628 C29.1745901,18.2129686 30.4209729,19.446079 31.9535621,19.446079 L41.3845253,19.446079 L45.2621607,26.1067089 L26.7049056,26.1067089 C25.1723164,26.1067089 23.9305498,27.3444033 23.9305498,28.8663091 C23.9305498,30.3698787 25.1723164,31.6029891 26.7049056,31.6029891 L48.4704423,31.6029891 L52.2188232,38.0710888 C46.776285,42.0821357 42.986358,48.2201834 42.2154472,55.2429536 L34.7279179,55.2429536 L23.8382252,36.5308468 C23.081163,35.2060553 21.3870056,34.7751542 20.0529144,35.526939 C18.7372881,36.2787238 18.2848973,37.9610715 19.0419595,39.285863 L28.3298195,55.2429536 L20.5745487,55.2429536 L15.8521428,47.1291787 C15.0950806,45.8227234 13.3778421,45.3734862 12.0622158,46.1252709 C10.7465895,46.8816398 10.2941987,48.5823237 11.0558771,49.888779 L14.1718341,55.2429536 L2.77897203,55.2429536 C1.2463828,55.2429536 0,56.476064 0,57.9979698 C0,59.5198756 1.2463828,60.75757 2.77897203,60.75757 L14.1718341,60.75757 L11.0558771,66.1300809 C10.2941987,67.4365361 10.7465895,69.1188838 12.0806807,69.8706686 C12.5146066,70.1227916 12.9808461,70.246561 13.4517018,70.246561 C14.407262,70.246561 15.3443572,69.7468992 15.8521428,68.8713449 L20.5745487,60.75757 L28.3482844,60.75757 L19.0419595,76.7284128 C18.2848973,78.0394521 18.7372881,79.7217998 20.0529144,80.4735846 C20.500689,80.7257075 20.9715447,80.849477 21.4424004,80.849477 C22.3979606,80.849477 23.3350558,80.3452311 23.8382252,79.4696768 L34.7279179,60.75757 L42.2154472,60.75757 C42.986358,67.7757561 46.776285,73.9183879 52.2188232,77.9294348 L48.4704423,84.3929504 L26.7049056,84.3929504 C25.1723164,84.3929504 23.9490147,85.6306449 23.9490147,87.1342145 C23.9490147,88.6561203 25.1723164,89.8938147 26.7049056,89.8938147 L45.2621607,89.8938147 L41.3845253,96.5498606 L31.9535621,96.5498606 C30.4209729,96.5498606 29.1745901,97.787555 29.1745901,99.3094608 C29.1745901,100.831367 30.4209729,102.050725 31.9535621,102.050725 L38.1900923,102.050725 L32.4751964,111.878936 C31.7181342,113.189975 32.170525,114.872323 33.5046162,115.624108 C33.9385421,115.871646 34.4047816,116 34.8756373,116 C35.8311975,116 36.7682927,115.495754 37.271462,114.6202 L42.986358,104.805741 L46.1069312,110.178252 C46.6331818,111.05839 47.551812,111.558052 48.5073722,111.558052 C48.9736117,111.558052 49.4629323,111.434283 49.8968582,111.18216 C51.2309494,110.430375 51.678724,108.748027 50.9031969,107.436988 L46.180791,99.3094608 L50.0584263,92.6304947 L59.360135,108.605922 C59.8679206,109.481476 60.8050158,109.981138 61.760576,109.981138 C62.2268155,109.981138 62.6976712,109.875704 63.1315971,109.605245 C64.4656883,108.85346 64.9134629,107.171113 64.1564007,105.846321 L53.266708,87.1342145 L57.0012402,80.6890351 C60.0664186,82.0275788 63.4547334,82.7839476 67.0092325,82.7839476 C70.5591153,82.7839476 73.9335814,82.0275788 76.9987598,80.6890351 L80.7471407,87.1342145 L69.857448,105.846321 C69.1003858,107.171113 69.5481604,108.85346 70.8684029,109.605245 C71.2977126,109.857368 71.7870332,109.981138 72.2532727,109.981138 C73.2088329,109.981138 74.1505443,109.481476 74.6537137,108.605922 L83.9415737,92.6304947 L87.8330577,99.3094608 L83.1106518,107.423236 C82.3535896,108.748027 82.8059804,110.412039 84.1216067,111.18216 C84.5555326,111.434283 85.040237,111.558052 85.5110927,111.558052 C86.4666529,111.558052 87.4037481,111.05839 87.9069175,110.178252 L91.0274907,104.805741 L96.7423867,114.638536 C97.2501722,115.51409 98.1872675,116 99.1243627,116 C99.5906022,116 100.079923,115.889983 100.513849,115.624108 C101.84794,114.872323 102.295714,113.189975 101.538652,111.878936 L95.8237564,102.050725 L102.064903,102.050725 C103.579027,102.050725 104.820794,100.81303 104.820794,99.3094608 C104.820794,97.787555 103.579027,96.5498606 102.064903,96.5498606 L92.6108585,96.5498606 L88.7378393,89.8938147 L107.308943,89.8938147 C108.823067,89.8938147 110.06945,88.6561203 110.06945,87.1342145 C110.06945,85.6306449 108.841532,84.3929504 107.308943,84.3929504 L85.5295577,84.3746142 L81.7765606,77.9294348 C87.24218,73.9183879 91.0090258,67.7757561 91.7845528,60.75757 L99.249001,60.75757 L110.14331,79.4696768 C110.646479,80.3452311 111.583574,80.849477 112.539135,80.849477 C113.00999,80.849477 113.494695,80.7257075 113.928621,80.4735846 C115.244247,79.7217998 115.696638,78.0394521 114.939576,76.7284128 L105.651716,60.75757 L113.420835,60.75757 L118.147857,68.8713449 C118.651027,69.7468992 119.588122,70.246561 120.543682,70.246561 C121.014538,70.246561 121.485393,70.1411278 121.914703,69.8706686 C123.248794,69.1188838 123.701185,67.4365361 122.944123,66.1300809 L119.805085,60.75757 L131.221028,60.75757 C132.753617,60.75757 134,59.5198756 134,57.9979698 C134,56.476064 132.753617,55.2429536 131.221028,55.2429536" id="Fill-1" fill="#000000" mask="url(#mask-2)"></path>
            </g>
        </g>
    </g>
</svg>