<?xml version="1.0" encoding="UTF-8"?>
<svg width="200px" height="200px" viewBox="0 0 200 200" version="1.1" xmlns="http://www.w3.org/2000/svg" xmlns:xlink="http://www.w3.org/1999/xlink">
    <!-- Generator: Sketch 52.5 (67469) - http://www.bohemiancoding.com/sketch -->
    <title>proof-of-address</title>
    <desc>Created with Sketch.</desc>
    <g id="proof-of-address" stroke="none" stroke-width="1" fill="none" fill-rule="evenodd">
        <g transform="translate(45.000000, 42.000000)" fill="#000000" id="Group-7">
            <g>
                <path d="M13.1087914,17.5796445 L30.194101,17.5796445 L30.194101,13.3514113 L13.1087914,13.3514113 L13.1087914,17.5796445 Z M15.8487761,37.8467962 L27.4541162,26.1851461 L27.4541162,19.2048702 L15.8487761,19.2048702 L15.8487761,37.8467962 Z M13.0093377,102.86511 C10.0860506,103.31709 7.78091386,105.275439 6.83389091,108.117089 L6.42675955,109.338388 L37.9538198,109.338388 L36.7452359,107.870322 C36.678157,107.763305 36.6050224,107.656287 36.5223384,107.544859 C36.5006776,107.515841 36.4790167,107.488448 36.4571229,107.46152 L36.4398874,107.439931 C36.3711781,107.352878 36.302003,107.269771 36.2293343,107.188985 C36.1932328,107.148825 36.1573643,107.110754 36.1212628,107.072914 C36.0478953,106.99654 35.971267,106.922719 35.8925426,106.850522 L35.8680867,106.828005 C35.8399043,106.80154 35.8114889,106.775541 35.781909,106.750237 C35.6712755,106.654827 35.5627382,106.56847 35.4514059,106.487452 L35.4253197,106.46772 C35.304438,106.380667 35.1758702,106.297096 35.0282036,106.209114 C34.9969933,106.190543 34.9082536,106.141329 34.9082536,106.141329 C34.808334,106.08515 34.7086474,106.032222 34.6057,105.981615 C34.5544592,105.956544 34.5048488,105.933097 34.4545397,105.910115 C34.3527568,105.863455 34.2465487,105.818652 34.1380113,105.775705 L34.1156517,105.76642 C34.0772211,105.751098 34.0392564,105.735777 33.9998941,105.721152 C33.8277717,105.657545 33.6726518,105.605545 33.5231219,105.561438 C33.3344626,105.505492 33.1721225,105.383153 33.066613,105.216707 C33.0314432,105.161458 33.0030279,105.101797 32.9820657,105.038887 C31.6581901,101.081331 27.953481,98.4216809 23.7638477,98.4216809 C20.6281443,98.4216809 17.6680571,99.9433713 15.8457483,102.49229 C15.6934234,102.70586 15.4449056,102.833074 15.1805497,102.833074 C15.1484077,102.833074 15.1162658,102.831217 15.083658,102.827271 C14.9231812,102.808235 14.7603752,102.795003 14.5978022,102.785949 C14.5612349,102.784092 14.4606166,102.781539 14.4606166,102.781539 C14.3644236,102.778056 14.2668332,102.775735 14.1690099,102.775735 L14.1182349,102.775967 C14.0143559,102.776664 13.9081477,102.781539 13.8017066,102.786878 L13.7497671,102.789199 C13.7013213,102.791289 13.6526425,102.793378 13.6041967,102.79686 C13.440692,102.80986 13.2937241,102.825181 13.1539765,102.843985 L13.0093377,102.86511 Z M46.9044211,73.020246 C45.9031295,73.020246 45.0884009,73.8320463 45.0884009,74.8300245 L45.0886339,109.339084 L64.9111332,109.339084 L64.9111332,74.8300245 C64.9111332,73.8320463 64.0966376,73.020246 63.095346,73.020246 L46.9044211,73.020246 Z M86.2352206,98.421913 C82.0458203,98.421913 78.3413441,101.081331 77.0167697,105.039583 C76.9329211,105.291225 76.73052,105.486456 76.4754806,105.561903 C76.3280469,105.605081 76.1724613,105.657313 76.0019692,105.720455 L75.8654823,105.774312 C75.751821,105.81958 75.6465444,105.863687 75.5445287,105.91058 C75.4949183,105.93333 75.4446091,105.957008 75.3947658,105.981383 C75.2911197,106.032454 75.1928305,106.084454 75.0961718,106.138775 C75.0961718,106.138775 75.0039383,106.190079 74.9731939,106.208186 C74.8280893,106.29431 74.6992886,106.377881 74.5786398,106.46447 L74.5306598,106.500917 C74.4377276,106.568238 74.3256966,106.65738 74.2166935,106.75163 C74.1840857,106.779951 74.1058271,106.851915 74.1058271,106.851915 C74.0275684,106.923879 73.9514059,106.997236 73.8785043,107.073379 C73.8407724,107.112843 73.8056026,107.150218 73.7715974,107.187825 C73.6975311,107.270235 73.6276573,107.354038 73.5603456,107.439467 L73.5428771,107.461288 C73.5207504,107.488681 73.4990895,107.516073 73.4778945,107.544627 C73.3828661,107.672537 73.2990175,107.796501 73.2214576,107.923715 L72.4386381,109.333513 L74.015224,109.339316 L103.572309,109.339316 L103.165177,108.118017 C102.212099,105.258261 99.8839036,103.292947 96.9349962,102.857217 L96.8995935,102.85211 C96.7416787,102.82936 96.5784069,102.811485 96.4002287,102.797556 C96.3480562,102.79361 96.2977471,102.791289 96.2479038,102.789431 L96.1954984,102.78711 C96.0906877,102.781771 95.9847125,102.776896 95.8789701,102.776199 L95.8298255,102.775967 C95.7322351,102.775967 95.6346447,102.778289 95.5368214,102.782003 C95.5368214,102.782003 95.4378335,102.784324 95.4047599,102.785949 C95.2347336,102.795235 95.0702973,102.809163 94.913547,102.827735 C94.8804734,102.831681 94.8483315,102.833771 94.8159566,102.833771 C94.553464,102.833771 94.305645,102.706092 94.1526213,102.49229 C92.3305454,99.9436034 89.3706911,98.421913 86.2352206,98.421913 Z M3.84259338,110.96431 C2.62259676,110.96431 1.63015584,111.953699 1.63015584,113.169426 C1.63015584,114.385153 2.62259676,115.374542 3.84259338,115.374542 L106.156941,115.374542 C107.376937,115.374542 108.369611,114.385153 108.369611,113.169426 C108.369611,111.953699 107.376937,110.96431 106.156941,110.96431 L3.84259338,110.96431 Z M3.84282629,117 C1.72401965,117 0,115.281918 0,113.16989 C0,111.057631 1.72401965,109.339548 3.84282629,109.339548 L4.84248751,109.339548 L5.00971881,108.620605 C5.81350047,105.16494 8.21785805,102.521075 11.4418354,101.548168 L12.1035403,101.348759 L12.1035403,88.8873794 C12.1035403,88.4395776 12.4692132,88.0748826 12.9187346,88.0748826 C13.3682561,88.0748826 13.733929,88.4395776 13.733929,88.8873794 L13.733929,102.291023 L15.3547684,100.514905 L15.4290675,100.437601 C15.4963793,100.365173 15.5632252,100.296923 15.6303041,100.228209 C15.7046032,100.152299 15.7786694,100.077317 15.854599,100.003496 C15.9240069,99.9366391 15.9952782,99.870943 16.0663166,99.8054789 C16.1434107,99.7346757 16.2209706,99.6641045 16.3001609,99.5953905 C16.3739942,99.5310872 16.4485263,99.468641 16.5235242,99.4066591 C16.6017828,99.3421236 16.6830694,99.2761953 16.7652875,99.2123563 C16.8428475,99.1515351 16.9206403,99.0930353 16.998899,99.0347677 C17.0799526,98.9748751 17.1644999,98.9142861 17.249513,98.8548577 C17.329635,98.7986794 17.4092911,98.744126 17.4901118,98.6907334 C17.5767553,98.6333943 17.6636317,98.5783767 17.7512069,98.5235912 C17.8343567,98.4718235 17.9168078,98.4214487 18.0006564,98.3720025 C18.0900949,98.3190741 18.1802321,98.2686993 18.2706022,98.219021 C18.3549166,98.1723604 18.4399297,98.125932 18.5256416,98.0813608 C18.6181079,98.0333074 18.711273,97.9878076 18.8042051,97.9425399 C18.8917803,97.9000579 18.9784238,97.8580402 19.0662319,97.8178797 C19.1600957,97.7753977 19.2565216,97.7347729 19.3531803,97.694148 L19.4016262,97.6734874 C19.4738291,97.6430768 19.5457991,97.6126662 19.6187008,97.5841128 C19.7127975,97.5474343 19.8089904,97.5130773 19.9054163,97.478256 L19.9829762,97.450399 C20.0493563,97.4262562 20.1155035,97.4021135 20.1828153,97.3798279 C20.2680613,97.3512744 20.3514441,97.3264352 20.4350597,97.3011317 L20.5580376,97.2637569 C20.6248835,97.2435605 20.6919624,97.2228999 20.75974,97.2043286 C20.844986,97.1806501 20.9311637,97.1599894 21.0173414,97.1388645 L21.1680359,97.1017218 C21.2271957,97.087329 21.2861226,97.0722398 21.3457483,97.059472 C21.4377488,97.0395078 21.5327772,97.021865 21.6275726,97.0042222 L21.7791988,96.9754366 C21.8323029,96.9649902 21.885407,96.9545438 21.9389769,96.9459546 C22.0335394,96.9304011 22.1267045,96.9185618 22.2198696,96.9064905 L22.4038706,96.8818834 C22.4502202,96.8753834 22.4968027,96.8684192 22.5436182,96.8633121 C22.6647328,96.85008 22.7881765,96.8414907 22.9116202,96.8329015 L23.0443805,96.8219908 C23.0797832,96.8187408 23.1151859,96.8154908 23.1510545,96.8136337 C23.3611417,96.8022587 23.5677352,96.7966873 23.7638477,96.7966873 C28.3687643,96.7966873 32.4820022,99.530855 34.2432879,103.762338 L34.3939824,104.124712 L34.7598882,104.269568 C34.9082536,104.3283 35.0526594,104.391675 35.1942703,104.457371 L35.3265647,104.522139 C35.4229906,104.568799 35.5163886,104.615692 35.6079233,104.664906 C35.6545058,104.69021 35.7041162,104.718067 35.7534937,104.746156 C35.8396714,104.794906 35.9218896,104.843655 36.0027103,104.893798 C36.0581435,104.927923 36.1014652,104.954851 36.1438553,104.982244 C36.2284026,105.037726 36.3120183,105.095994 36.3947023,105.154958 L36.5046371,105.232957 C36.6182985,105.317921 36.7303295,105.405903 36.8384009,105.497599 L36.8933683,105.547278 C36.9783815,105.621331 37.0666554,105.701188 37.1519014,105.78383 C37.1733294,105.804723 37.2571779,105.890383 37.2571779,105.890383 C37.3212289,105.955151 37.3848141,106.021776 37.4467689,106.089793 C37.4819387,106.129025 37.5173414,106.169418 37.5525112,106.210275 C37.6114381,106.278525 37.6680359,106.348399 37.7234691,106.418506 C37.7651605,106.471202 37.7928771,106.506256 37.819895,106.542006 C37.8790548,106.621166 37.9363513,106.703344 37.9927162,106.786451 L38.0614254,106.885576 C38.1387524,107.003968 38.2116541,107.124218 38.2789659,107.244467 L38.3269459,107.335467 C38.3795841,107.432502 38.4298933,107.529073 38.4774075,107.627734 C38.4918481,107.657912 38.5409926,107.768179 38.5409926,107.768179 C38.5805878,107.855233 38.6180867,107.941357 38.6534895,108.028875 C38.6749174,108.081803 38.6949479,108.133107 38.7142797,108.184642 C38.7482849,108.27541 38.7806598,108.36757 38.8111713,108.460195 L38.8808122,108.672604 L39.0773905,109.339548 L43.4582451,109.339084 L43.4582451,74.8300245 C43.4582451,72.9362106 45.0040866,71.3952524 46.9044211,71.3952524 L63.0955789,71.3952524 C64.9956805,71.3952524 66.5417549,72.9362106 66.5417549,74.8300245 L66.5417549,109.340477 L70.9240069,109.340477 L71.1194207,108.671444 L71.1874312,108.465766 C71.2188744,108.369427 71.2517151,108.275177 71.2868849,108.182089 C71.3062167,108.130553 71.3248497,108.082964 71.3439485,108.035839 C71.3814474,107.942518 71.4205768,107.852215 71.4613365,107.763072 C71.4613365,107.763072 71.5069874,107.660698 71.5200305,107.633537 C71.57197,107.525359 71.6257728,107.421592 71.681439,107.319913 L71.7121835,107.261414 C71.7867155,107.127236 71.8612476,107.004433 71.9397391,106.883951 L71.9982002,106.799683 C72.0578259,106.711469 72.118849,106.623952 72.1826671,106.538988 C72.2043279,106.50997 72.2716397,106.425006 72.2716397,106.425006 C72.3298679,106.350953 72.3894935,106.27806 72.4507496,106.207025 C72.484289,106.167793 72.5168968,106.130882 72.5499704,106.093972 C72.6147201,106.022472 72.6817989,105.952597 72.7500423,105.883419 L72.7824172,105.850687 C72.8031464,105.829098 72.8238757,105.807277 72.8455365,105.786384 C72.9352079,105.699563 73.0288388,105.613902 73.1254976,105.530796 L73.1685864,105.492028 C73.2626832,105.411939 73.3737825,105.323957 73.497925,105.231565 L73.5971458,105.160993 C73.6821589,105.100172 73.7701999,105.039119 73.86057,104.980155 L73.9914669,104.897977 C74.0755484,104.845745 74.1617261,104.794673 74.2493013,104.745227 C74.2951851,104.719459 74.3426992,104.692763 74.3906793,104.666763 C74.4850089,104.615692 74.583531,104.566478 74.6825188,104.518192 L74.8010714,104.460389 C74.9454773,104.3933 75.0903489,104.329693 75.2394131,104.270729 L75.6053189,104.125873 L75.7560134,103.763267 C77.0971246,100.541833 79.915368,98.0808965 83.2956297,97.1811144 C84.2510375,96.9266868 85.2399848,96.797848 86.2352206,96.797848 C86.4352926,96.797848 86.6414203,96.8034194 86.8484797,96.8147944 C86.8841154,96.8166515 86.917189,96.8196694 86.9502626,96.8226872 L87.0881469,96.83383 C87.2115906,96.8426514 87.3350343,96.8512407 87.4575464,96.8644728 C87.4994707,96.8691156 87.5437241,96.8756156 87.5879775,96.8818834 L87.7775684,96.9071869 C87.8709664,96.9192583 87.9643644,96.9310975 88.0570636,96.9464189 C88.1164563,96.9559367 88.1711908,96.9668474 88.2256924,96.9775259 L88.3586855,97.0025972 C88.4579063,97.0209364 88.55736,97.0395078 88.6558821,97.0606327 C88.7096849,97.0724719 88.7662827,97.0866326 88.8231134,97.1005611 L88.9672864,97.1360788 C89.0581223,97.1581323 89.1494241,97.1801858 89.2400271,97.2047928 C89.3050097,97.2228999 89.3685949,97.2423998 89.4321801,97.2616676 L89.5423478,97.2948639 C89.6338824,97.3222567 89.72565,97.3498815 89.8157872,97.3798279 C89.885894,97.4030421 89.9532057,97.4276491 90.0205175,97.452024 L90.0792115,97.4733811 C90.1821589,97.5102916 90.2827772,97.5462736 90.3824638,97.5852735 C90.45653,97.6145234 90.5315279,97.6463268 90.6065258,97.6778981 L90.6682476,97.703898 C90.7574532,97.7417371 90.8464258,97.779112 90.9344668,97.8192725 C91.0145888,97.8554867 91.0933133,97.893558 91.1720378,97.9316292 C91.2863979,97.9873433 91.3804946,98.0330753 91.4734268,98.0815929 C91.5603032,98.1263963 91.6432201,98.1721283 91.726137,98.2178602 C91.8188363,98.2686993 91.9099051,98.3195384 91.9995765,98.3726989 C92.0822605,98.4214487 92.1630812,98.470895 92.2441348,98.5212698 C92.3338062,98.577216 92.4225459,98.6336265 92.510354,98.6916619 C92.5907089,98.7448224 92.6692005,98.7986794 92.747692,98.8534649 C92.833171,98.9131253 92.9188829,98.9748751 93.003896,99.0375534 C93.0802914,99.0941961 93.1564538,99.1517673 93.2319175,99.2107313 C93.3171635,99.2768918 93.398683,99.3428201 93.4797366,99.4099091 C93.5531041,99.4700338 93.6255399,99.530855 93.6968112,99.5933012 C93.7783307,99.6638724 93.857288,99.7351399 93.9353138,99.8068718 C94.0054205,99.8714073 94.0748285,99.9357106 94.1430719,100.001871 C94.2206318,100.077085 94.2956297,100.152995 94.3701618,100.22937 C94.4370077,100.297852 94.502922,100.364941 94.5672059,100.434119 L94.6463962,100.516298 L96.2646735,102.274773 L96.2656051,99.8897465 L96.2656051,52.6028984 L55.9169772,12.0595414 C55.6733506,11.8141674 55.3472728,11.6785965 54.9997671,11.6785965 C54.6524943,11.6785965 54.3264165,11.8141674 54.0818582,12.0600057 L13.7336961,52.6028984 L13.7336961,78.0686366 C13.7336961,78.5169027 13.3680232,78.8813656 12.9185017,78.8813656 C12.4689803,78.8813656 12.1033074,78.5169027 12.1033074,78.0686366 L12.1033074,54.241124 L7.95094012,58.4136432 C7.11082409,59.2579434 5.99144575,59.725013 4.79893284,59.7291916 C3.59593885,59.7291916 2.47888964,59.2700148 1.63714322,58.4366253 C-0.105975269,56.7094892 -0.115990514,53.8891969 1.6147836,52.1499895 L14.2183874,39.485254 L14.2183874,19.2048702 L12.8691242,19.2048702 C12.1023757,19.2048702 11.4784026,18.5827298 11.4784026,17.8182864 L11.4784026,13.1125373 C11.4784026,12.3480939 12.1023757,11.7261856 12.8691242,11.7261856 L30.434001,11.7261856 C31.2009825,11.7261856 31.8247226,12.3480939 31.8247226,13.1125373 L31.8247226,17.8180543 C31.8247226,18.5824977 31.2009825,19.2046381 30.434001,19.2046381 L29.0847379,19.2046381 L29.0847379,24.5473847 L52.4670746,1.05183511 C53.1420556,0.373516375 54.0413314,0 54.9997671,0 C55.9582028,0 56.8574786,0.373516375 57.5324596,1.05160297 L88.6654315,32.3357467 C88.818921,32.4898889 88.9027695,32.6939417 88.9020708,32.9109944 C88.9009062,33.1280471 88.8151944,33.3318677 88.6605404,33.4846171 C88.506818,33.6366701 88.3032523,33.7202412 88.0868764,33.7202412 C87.8677056,33.7202412 87.6620437,33.634813 87.5078555,33.4797421 L56.3744177,2.19583057 C56.008279,1.8278856 55.5198611,1.62499355 54.9995342,1.62499355 C54.4789743,1.62499355 53.9905564,1.8278856 53.6244177,2.19629486 L2.77235962,53.2942171 C1.67371051,54.398052 1.68023207,56.1878663 2.7868002,57.2838084 C3.32086898,57.8128599 4.02962226,58.104198 4.78262895,58.104198 C5.55030914,58.1014123 6.26069281,57.804967 6.79359702,57.2691835 L52.924748,10.9150817 C53.4099051,10.4273515 54.0257263,10.1343884 54.7060642,10.0677636 C54.80249,10.0580137 54.901245,10.0533708 54.9997671,10.0533708 C55.1206488,10.0533708 55.2538748,10.0640493 55.4185441,10.0872635 C56.0520666,10.1768703 56.6247988,10.4631013 57.0747861,10.9150817 L103.20617,57.2694156 C103.738841,57.804967 104.449225,58.1014123 105.206191,58.104198 C105.969679,58.104198 106.678432,57.8128599 107.212501,57.2838084 C108.319302,56.1878663 108.325591,54.3982841 107.226942,53.2944492 L95.1546117,41.1636402 C95.0013551,41.009498 94.9175066,40.8052131 94.9184382,40.5883925 C94.919137,40.3713398 95.0050817,40.1675192 95.1597357,40.0147698 C95.3132252,39.8627168 95.5170238,39.7791457 95.7333997,39.7791457 C95.9523376,39.7791457 96.1582324,39.864574 96.3124206,40.0196448 L108.384518,52.1499895 C110.115991,53.8891969 110.105742,56.7092571 108.361925,58.4363931 C107.520179,59.2700148 106.403362,59.7291916 105.216905,59.7291916 C104.007856,59.7247809 102.888244,59.2577113 102.048361,58.4134111 L97.8959939,54.2408919 L97.8959939,101.35433 L98.5560684,101.554668 C101.781443,102.534075 104.186732,105.175386 104.989582,108.620605 L105.157047,109.339084 L106.156941,109.339084 C108.27598,109.339084 110,111.057399 110,113.16989 C110,115.281918 108.276213,117 106.157174,117 L3.84282629,117 Z" id="Fill-1"></path>
                <path d="M74.6713389,90.3958745 L85.3293773,90.3958745 L85.3293773,77.6043547 L74.6713389,77.6043547 L74.6713389,90.3958745 Z M74.6684742,92 C73.7484142,92 73,91.2812491 73,90.3981665 L73,77.6020627 C73,76.7187509 73.7484142,76 74.6684742,76 L85.3315258,76 C86.2513471,76 87,76.7187509 87,77.6020627 L87,90.3981665 C87,91.2812491 86.2513471,92 85.3315258,92 L74.6684742,92 Z" id="Fill-3"></path>
                <path d="M24.6708615,90.3956453 L35.3288998,90.3956453 L35.3288998,77.6041255 L24.6708615,77.6041255 L24.6708615,90.3956453 Z M24.6684742,92 C23.7484142,92 23,91.2812491 23,90.3981665 L23,77.6020627 C23,76.7187509 23.7484142,76 24.6684742,76 L35.3312871,76 C36.2513471,76 37,76.7187509 37,77.6020627 L37,90.3981665 C37,91.2812491 36.2513471,92 35.3312871,92 L24.6684742,92 Z" id="Fill-4"></path>
                <path d="M45.1880636,34.4779037 L54.1817252,34.4779037 L54.1817252,25.5804231 L45.1880636,34.4779037 Z M55.818552,34.4779037 L64.8124475,34.4779037 L55.818552,25.5806526 L55.818552,34.4779037 Z M38.1974103,41.3938323 L54.1817252,41.3938323 L54.1817252,36.0840714 L43.5643314,36.0840714 L38.1974103,41.3938323 Z M55.818552,41.3938323 L71.802867,41.3938323 L66.435712,36.0840714 L55.818552,36.0840714 L55.818552,41.3938323 Z M37.2377621,43 C36.7368931,43 36.2884026,42.7065302 36.0957247,42.2526731 C35.9030468,41.798816 36.0064007,41.2802533 36.3592538,40.931256 C36.3592538,40.931256 54.0980132,23.3824974 54.1213965,23.3593227 C54.3556965,23.1273462 54.6673951,23 54.9999048,23 C55.3324145,23 55.6445807,23.1275756 55.8786469,23.3593227 L73.6410234,40.931256 C73.9934089,41.2800239 74.0969966,41.7985866 73.9043187,42.2526731 C73.711407,42.7067597 73.2631503,43 72.7622813,43 L37.2377621,43 Z" id="Fill-5"></path>
                <path d="M59,95 C58.448647,95 58,94.6605872 58,94.243242 L58,90.7565254 C58,90.3394128 58.448647,90 59,90 C59.551353,90 60,90.3394128 60,90.7565254 L60,94.243242 C60,94.6605872 59.551353,95 59,95" id="Fill-6"></path>
            </g>
        </g>
    </g>
</svg>